^C:\USERS\HALO_\DESKTOP\RECORRIDO MITLA\TEXTURAS\STDAFX.CPP
C:\USERS\HALO_\DESKTOP\RECORRIDO MITLA\TEXTURAS\DEBUG\TEXTURAS.PCH
C:\USERS\HALO_\DESKTOP\RECORRIDO MITLA\TEXTURAS\DEBUG\VC141.PDB
C:\USERS\HALO_\DESKTOP\RECORRIDO MITLA\TEXTURAS\DEBUG\VC141.IDB
C:\USERS\HALO_\DESKTOP\RECORRIDO MITLA\TEXTURAS\DEBUG\STDAFX.OBJ
^C:\USERS\HALO_\DESKTOP\RECORRIDO MITLA\TEXTURAS\IMAGELOADER.CPP|C:\USERS\HALO_\DESKTOP\RECORRIDO MITLA\TEXTURAS\TEXTURAS.CPP
C:\USERS\HALO_\DESKTOP\RECORRIDO MITLA\TEXTURAS\DEBUG\VC141.PDB
C:\USERS\HALO_\DESKTOP\RECORRIDO MITLA\TEXTURAS\DEBUG\VC141.IDB
C:\USERS\HALO_\DESKTOP\RECORRIDO MITLA\TEXTURAS\DEBUG\IMAGELOADER.OBJ
C:\USERS\HALO_\DESKTOP\RECORRIDO MITLA\TEXTURAS\DEBUG\TEXTURAS.OBJ
^C:\USERS\HALO_\DESKTOP\RECORRIDO MITLA\TEXTURAS\IMAGELOADER.CPP
C:\USERS\HALO_\DESKTOP\RECORRIDO MITLA\TEXTURAS\DEBUG\VC141.PDB
^C:\USERS\HALO_\DESKTOP\RECORRIDO MITLA\TEXTURAS\TEXTURAS.CPP
C:\USERS\HALO_\DESKTOP\RECORRIDO MITLA\TEXTURAS\DEBUG\VC141.PDB
^C:\USERS\HALO_\DESKTOP\MITLA RECORRIDO\RECORRIDO MITLA - COPIA (2)\TEXTURAS\STDAFX.CPP
C:\USERS\HALO_\DESKTOP\MITLA RECORRIDO\RECORRIDO MITLA - COPIA (2)\TEXTURAS\DEBUG\TEXTURAS.PCH
C:\USERS\HALO_\DESKTOP\MITLA RECORRIDO\RECORRIDO MITLA - COPIA (2)\TEXTURAS\DEBUG\VC141.PDB
C:\USERS\HALO_\DESKTOP\MITLA RECORRIDO\RECORRIDO MITLA - COPIA (2)\TEXTURAS\DEBUG\VC141.IDB
C:\USERS\HALO_\DESKTOP\MITLA RECORRIDO\RECORRIDO MITLA - COPIA (2)\TEXTURAS\DEBUG\STDAFX.OBJ
^C:\USERS\HALO_\DESKTOP\MITLA RECORRIDO\RECORRIDO MITLA - COPIA (2)\TEXTURAS\IMAGELOADER.CPP|C:\USERS\HALO_\DESKTOP\MITLA RECORRIDO\RECORRIDO MITLA - COPIA (2)\TEXTURAS\TEXTURAS.CPP
C:\USERS\HALO_\DESKTOP\MITLA RECORRIDO\RECORRIDO MITLA - COPIA (2)\TEXTURAS\DEBUG\VC141.PDB
C:\USERS\HALO_\DESKTOP\MITLA RECORRIDO\RECORRIDO MITLA - COPIA (2)\TEXTURAS\DEBUG\VC141.IDB
C:\USERS\HALO_\DESKTOP\MITLA RECORRIDO\RECORRIDO MITLA - COPIA (2)\TEXTURAS\DEBUG\IMAGELOADER.OBJ
C:\USERS\HALO_\DESKTOP\MITLA RECORRIDO\RECORRIDO MITLA - COPIA (2)\TEXTURAS\DEBUG\TEXTURAS.OBJ
^C:\USERS\HALO_\DESKTOP\MITLA RECORRIDO\RECORRIDO MITLA - COPIA (2)\TEXTURAS\IMAGELOADER.CPP
C:\USERS\HALO_\DESKTOP\MITLA RECORRIDO\RECORRIDO MITLA - COPIA (2)\TEXTURAS\DEBUG\VC141.PDB
^C:\USERS\HALO_\DESKTOP\MITLA RECORRIDO\RECORRIDO MITLA - COPIA (2)\TEXTURAS\TEXTURAS.CPP
C:\USERS\HALO_\DESKTOP\MITLA RECORRIDO\RECORRIDO MITLA - COPIA (2)\TEXTURAS\DEBUG\VC141.PDB
